…
The output object contains all the relevant information to analyze the
results of this computation, which include the bootstrap resamples, the
fits and possible errors.

``` r
# Resamples are available for inspection as list of lists, 
# with a mapping to record the mutation id of the resample data.
# Ids are row numbers.
print(bootstrap_results$resamples[[1]][[1]] %>% as_tibble())
#> # A tibble: 400 x 3
#>       id    VAF original.id
#>    <int>  <dbl>       <int>
#>  1     1 0.877           10
#>  2     2 0.965           58
#>  3     3 0.791           77
#>  4     4 0.715           98
#>  5     5 0.270          338
#>  6     6 0.405          174
#>  7     7 0.482          129
#>  8     8 0.0691         361
#>  9     9 0.270          338
#> 10    10 0.829           93
#> # … with 390 more rows
…
Object `bootstrap_statistics` contains several tibbles that aggregate
the data, and for each one of them there is a MOBSTER function to plot
the data.

``` r
# All bootstrapped values
print(bootstrap_statistics$bootstrap_values)
#> # A tibble: 325 x 5
#>    cluster statistics fit.value init.value resample
#>    <chr>   <chr>          <dbl>      <dbl>    <int>
#>  1 Tail    Shape        1.08       1.14           1
#>  2 Tail    Scale        0.0508     0.0508         1
#>  3 Tail    Mean         0.670      0.414          1
#>  4 Tail    Variance   Inf        Inf              1
#>  5 C2      a           14.0       20.4            1
#>  6 C2      b           17.6       20.4            1
#>  7 C2      Mean         0.443      0.645          1
#>  8 C2      Variance     0.00757    0.00702        1
#>  9 C1      a           18.6       16.5            1
#> 10 C1      b            4.84      16.5            1
#> # … with 315 more rows
…
