1. Introduction • mobster
…
You can run a MOBSTER analysis if, for a set of input mutations (SNVs, indels etc.), you have available VAF or CCF data. The input data can be loaded using different input formats.

For VAF values you can use:

a data.frame (or, tibble) with a column named VAF whose values are numerical \(0<x<1\), without NA entries;

a VCF file that must contain at least a column with the total depth of sequencing and the number of reads with the variants. In this case you need first to use function load_VCF and load the VCF content, and then proceed using your data as a data.frame.

For CCF values you can only use the a data.frame format. Importantly, you have to store the CCF values in a column again named VAF, which must follow the same convention of a VAF column (i.e., range of values). Since CCF values usually peak at around 1.0 for clonal mutations (i.e., present in 100% of the input cells), we suggest to adjust standard CCF estimates dividing them by 0.5 in order to reflect the peak of an heterozygous clonal mutation at 50% VAF for a 100% pure bulk sample.

Example dataset. Diploid mutations from sample LU4 of the Comprehensive Omics Archive of Lung Adenocarcinoma are available in the package under the name LU4_lung_sample. The available object is the results of an analysis with mobster, and the input mutation data is stored inside the object.

# Example dataset LU4_lung_sample, downloaded from http://genome.kaist.ac.kr/
print(mobster::LU4_lung_sample$best$data)
#> # A tibble: 1,282 x 12
#>      Key Callers t_alt_count t_ref_count Variant_Classif…    DP    VAF chr  
#>    <int> <chr>         <int>       <int> <chr>            <int>  <dbl> <chr>
#>  1   370 mutect…          30          95 intergenic         125 0.24   chr2 
#>  2   371 mutect…          10         105 intergenic         115 0.0870 chr2 
#>  3   372 mutect…          40         108 intronic           148 0.270  chr2 
#>  4   373 mutect…          20         101 intronic           121 0.165  chr2 
#>  5   374 mutect…          39          89 intergenic         128 0.305  chr2 
#>  6   375 mutect…          41         120 intronic           161 0.255  chr2 
#>  7   376 mutect…          43          93 intronic           136 0.316  chr2 
#>  8   377 mutect…          22          95 intergenic         117 0.188  chr2 
#>  9   378 mutect            7         104 intergenic         111 0.0631 chr2 
#> 10   379 mutect…          35          93 intergenic         128 0.273  chr2 
#> # … with 1,272 more rows, and 4 more variables: from <chr>, ref <chr>,
#> #   alt <chr>, cluster <chr>
…
The variance of the Betas is defined as \(u/B\) where \(u \sim U[0,1]\), and \(B\) is the input parameter Beta_variance_scaling. Roughly, values of Beta_variance_scaling on the order of 1000 give low variance and sharp peaked data distributions. Values on the order of 100 give much wider distributions.

dataset = random_dataset(
  seed = 123456789, 
  Beta_variance_scaling = 100    # variance ~ U[0, 1]/Beta_variance_scaling
  )

A list with 3 components is returned, which contains the actual data, sampled parameters of the generative model, and a plot of the data.

In mobster we provide the implementation of the model’s density function (ddbpmm, density Dirichlet Beta Pareto mixture model), and a sampler (rdbpmm) which is used internally by random_dataset to generate the data.

# Data, in the MOBSTER input format with a "VAF" column.
print(dataset$data)
#> # A tibble: 5,000 x 2
#>      VAF cluster
#>    <dbl> <chr>  
#>  1 0.856 C1     
#>  2 0.853 C1     
#>  3 0.844 C1     
#>  4 0.827 C1     
#>  5 0.855 C1     
#>  6 0.854 C1     
#>  7 0.878 C1     
#>  8 0.865 C1     
#>  9 0.845 C1     
#> 10 0.874 C1     
#> # … with 4,990 more rows
…
Usually, one keeps working with the best model fit. From that it is possible to extract the results of the fit, and the clustering assignments. The output is a copy of the input data, with a column reporting the model’s latent variables (LVs) and the cluster assignment (hard clustering).

# All assignments
Clusters(fit$best)
#> # A tibble: 5,000 x 5
#>      VAF cluster    Tail    C1           C2
#>    <dbl> <chr>     <dbl> <dbl>        <dbl>
#>  1 0.856 C1      0.00371 0.996 0.000000547 
#>  2 0.853 C1      0.00375 0.996 0.000000759 
#>  3 0.844 C1      0.00403 0.996 0.00000242  
#>  4 0.827 C1      0.00520 0.995 0.0000187   
#>  5 0.855 C1      0.00371 0.996 0.000000571 
#>  6 0.854 C1      0.00373 0.996 0.000000684 
#>  7 0.878 C1      0.00415 0.996 0.0000000246
#>  8 0.865 C1      0.00370 0.996 0.000000171 
#>  9 0.845 C1      0.00398 0.996 0.00000208  
#> 10 0.874 C1      0.00392 0.996 0.0000000480
#> # … with 4,990 more rows

# Assignments with LVs probability above 85%
Clusters(fit$best, cutoff_assignment = 0.85)
#> # A tibble: 5,000 x 5
#>      VAF cluster    Tail    C1           C2
#>    <dbl> <chr>     <dbl> <dbl>        <dbl>
#>  1 0.856 C1      0.00371 0.996 0.000000547 
#>  2 0.853 C1      0.00375 0.996 0.000000759 
#>  3 0.844 C1      0.00403 0.996 0.00000242  
#>  4 0.827 C1      0.00520 0.995 0.0000187   
#>  5 0.855 C1      0.00371 0.996 0.000000571 
#>  6 0.854 C1      0.00373 0.996 0.000000684 
#>  7 0.878 C1      0.00415 0.996 0.0000000246
#>  8 0.865 C1      0.00370 0.996 0.000000171 
#>  9 0.845 C1      0.00398 0.996 0.00000208  
#> 10 0.874 C1      0.00392 0.996 0.0000000480
#> # … with 4,990 more rows
…
