3. Confidence estimation by the bootstrap • mobster
…
The output object includes the bootstrap resamples, the fits and possible error returned by the runs.

# Resamples are available for inspection as list of lists, 
# with a mapping to record the mutation id of the resample data.
# Ids are row numbers.
print(bootstrap_results$resamples[[1]][[1]] %>% as_tibble())
#> # A tibble: 400 x 3
#>       id    VAF original.id
#>    <int>  <dbl>       <int>
#>  1     1 0.623           93
#>  2     2 0.608          189
#>  3     3 0.564           13
#>  4     4 0.515          175
#>  5     5 0.127          207
#>  6     6 0.515          175
#>  7     7 0.560           79
#>  8     8 0.111          240
#>  9     9 0.388           62
#> 10    10 0.0669         375
#> # ... with 390 more rows
…
Visualising bootstrap results

Object bootstrap_statistics contains tibbles that can be plot with specific mobster functions.

# All bootstrapped values
print(bootstrap_statistics$bootstrap_values)
#> # A tibble: 279 x 5
#>    cluster statistics        fit.value init.value resample
#>    <chr>   <chr>                 <dbl>      <dbl>    <int>
#>  1 C2      a                   3.72       0.00348        1
#>  2 C2      b                  32.6        0.00348        1
#>  3 C2      Mean                0.103      0.00599        1
#>  4 C2      Variance            0.00246    0.00376        1
#>  5 C1      a                  13.0        7.59           1
#>  6 C1      b                  10.9        7.59           1
#>  7 C1      Mean                0.543      0.188          1
#>  8 C1      Variance            0.00996    0.00368        1
#>  9 C2      Mixing proportion   0.480      0.5            1
#> 10 C1      Mixing proportion   0.520      0.5            1
#> # ... with 269 more rows
…
