5. dN/dS statistics • mobster
…
We compute the values using the clustering assignments from the best fit.

clusters = Clusters(fit$best)
print(clusters)
#> # A tibble: 2,298 x 14
#>      Key Callers t_alt_count t_ref_count Variant_Classif~    DP    VAF chr  
#>    <int> <chr>         <int>       <int> <chr>            <int>  <dbl> <chr>
#>  1   330 mutect~          23         149 intergenic         172 0.134  chr2 
#>  2   331 mutect~          53         133 intergenic         186 0.285  chr2 
#>  3   332 mutect~           8         132 intergenic         140 0.0571 chr2 
#>  4   334 mutect~          26         112 intergenic         138 0.188  chr2 
#>  5   335 mutect~          40         102 intronic           142 0.282  chr2 
#>  6   336 mutect~          32          95 intronic           127 0.252  chr2 
#>  7   337 mutect~          28         134 intergenic         162 0.173  chr2 
#>  8   338 mutect~          14         148 intergenic         162 0.0864 chr2 
#>  9   339 mutect~          11         108 intronic           119 0.0924 chr2 
#> 10   340 mutect~          11         171 intergenic         182 0.0604 chr2 
#> # ... with 2,288 more rows, and 6 more variables: from <chr>, ref <chr>,
#> #   alt <chr>, cluster <chr>, Tail <dbl>, C1 <dbl>
…
# Summary statistics
print(dnds_stats$dnds_summary)
#> # A tibble: 5 x 5
#>   name            mle cilow cihigh dnds_group
#>   <chr>         <dbl> <dbl>  <dbl> <chr>     
#> 1 wmis  0.731         0.113   4.73 Tail      
#> 2 wnon  0.00000000804 0     Inf    Tail      
#> 3 wspl  0.0000000260  0     Inf    Tail      
#> 4 wtru  0.0000000170  0     Inf    Tail      
#> 5 wall  0.701         0.109   4.51 Tail

# Table observation countns
print(dnds_stats$dndscv_table)
#> # A tibble: 20,091 x 15
#>    gene_name n_syn n_mis n_non n_spl wmis_cv wnon_cv wspl_cv pmis_cv ptrunc_cv
#>    <chr>     <dbl> <dbl> <dbl> <dbl>   <dbl>   <dbl>   <dbl>   <dbl>     <dbl>
#>  1 ATF4          0     1     0     0   5262.       0       0 1.00e-4     0.998
#>  2 C14orf79      0     1     0     0   4702.       0       0 1.13e-4     0.998
#>  3 FAM189A1      0     1     0     0   3155.       0       0 1.72e-4     0.997
#>  4 RNF150        0     1     0     0   2793.       0       0 1.96e-4     0.998
#>  5 NEO1          0     1     0     0   1141.       0       0 5.09e-4     0.994
#>  6 TTN           0     0     0     0      0        0       0 8.36e-1     0.968
#>  7 MUC16         0     0     0     0      0        0       0 8.95e-1     0.990
#>  8 OBSCN         0     0     0     0      0        0       0 9.15e-1     0.989
#>  9 SYNE1         0     0     0     0      0        0       0 9.17e-1     0.985
#> 10 NEB           0     0     0     0      0        0       0 9.19e-1     0.978
#> # ... with 20,081 more rows, and 5 more variables: pallsubs_cv <dbl>,
#> #   qmis_cv <dbl>, qtrunc_cv <dbl>, qallsubs_cv <dbl>, dnds_group <chr>
…
