6. Clone trees • mobster
…
# Genes are already annotated in this data
head(x$data$gene)
#> [1] "LOC102723448(dist=8399),CHL1(dist=163705)" 
#> [2] "LOC102723448(dist=14314),CHL1(dist=157790)"
#> [3] "LOC102723448(dist=72916),CHL1(dist=99188)" 
#> [4] "LOC102723448(dist=84382),CHL1(dist=87722)" 
#> [5] "LOC102723448(dist=124685),CHL1(dist=47419)"
#> [6] "LOC102723448(dist=132721),CHL1(dist=39383)"

# Drivers we add, just taken at random from the exonic mutations.
x$data %>% 
  filter(region == 'exonic') %>%
  as_tibble
#> # A tibble: 55 x 15
#>    region gene  chr     from     to ref   alt   vartype VAF.tumour VAF.normal
#>    <chr>  <chr> <chr>  <int>  <int> <chr> <chr> <chr>        <dbl>      <dbl>
#>  1 exonic CNTN4 chr3  2.92e6 2.92e6 G     T     SNP          0.376          0
#>  2 exonic CNTN4 chr3  3.09e6 3.09e6 G     T     SNP          0.347          0
#>  3 exonic LMCD1 chr3  8.58e6 8.58e6 G     A     SNP          0.394          0
#>  4 exonic FANC… chr3  1.01e7 1.01e7 C     T     SNP          0.096          0
#>  5 exonic HDAC… chr3  1.35e7 1.35e7 C     T     SNP          0.207          0
#>  6 exonic CMTM8 chr3  3.24e7 3.24e7 C     T     SNP          0.057          0
#>  7 exonic CSRN… chr3  3.92e7 3.92e7 G     T     SNP          0.032          0
#>  8 exonic ZNF6… chr3  4.05e7 4.05e7 G     A     SNP          0.031          0
#>  9 exonic SACM… chr3  4.58e7 4.58e7 C     T     SNP          0.342          0
#> 10 exonic PRSS… chr3  4.68e7 4.68e7 C     T     SNP          0.223          0
#> # … with 45 more rows, and 5 more variables: depth.tumour <dbl>,
#> #   depth.normal <chr>, NV <dbl>, VAF <dbl>, cluster <chr>
…
