Bootstrap routines for model • mobster
…
The output object contains all the relevant information to analyze the results of this computation, which include the bootstrap resamples, the fits and possible errors.

# Resamples are available for inspection as list of lists, 
# with a mapping to record the mutation id of the resample data.
# Ids are row numbers.
print(bootstrap_results$resamples[[1]][[1]] %>% as_tibble())
#> # A tibble: 200 x 3
#>       id    VAF original.id
#>    <int>  <dbl>       <int>
#>  1     1 0.377          142
#>  2     2 0.265           51
#>  3     3 0.0563         152
#>  4     4 0.267           58
#>  5     5 0.348           93
#>  6     6 0.395           75
#>  7     7 0.435           96
#>  8     8 0.268            2
#>  9     9 0.427           86
#> 10    10 0.395           75
#> # … with 190 more rows
…
Object bootstrap_statistics contains several tibbles that aggregate the data, and for each one of them there is a MOBSTER function to plot the data.

# All bootstrapped values
print(bootstrap_statistics$bootstrap_values)
#> # A tibble: 75 x 5
#>    cluster statistics     fit.value init.value resample
#>    <chr>   <chr>              <dbl>      <dbl>    <int>
#>  1 Tail    Shape          7.27         0.682          1
#>  2 Tail    Scale          0.0509       0.0509         1
#>  3 Tail    Mean           0.0590     Inf              1
#>  4 Tail    Variance       0.0000908  Inf              1
#>  5 C2      a           3884.          12.6            1
#>  6 C2      b          10649.          12.6            1
#>  7 C2      Mean           0.267        0.388          1
#>  8 C2      Variance       0.0000135    0.00709        1
#>  9 C1      a            185.          16.9            1
#> 10 C1      b            293.          16.9            1
#> # … with 65 more rows
…
