dN/dS statistics for mobster fits • mobster
…
We compute the values using the clustering assignments from the best fit.

clusters = Clusters(PD4120a_breast_sample$best)
pio::pioDisp(clusters)
#> # A tibble: 4,643 x 19
#>    region gene  chr     from     to ref   alt   vartype VAF.tumour VAF.normal
#>    <chr>  <chr> <chr>  <int>  <int> <chr> <chr> <chr>        <dbl>      <dbl>
#>  1 inter… LOC1… chr3   74574  74574 G     A     SNP          0.371          0
#>  2 inter… LOC1… chr3   80489  80489 C     T     SNP          0.276          0
#>  3 inter… LOC1… chr3  139091 139091 G     C     SNP          0.049          0
#>  4 inter… LOC1… chr3  150557 150557 G     C     SNP          0.077          0
#>  5 inter… LOC1… chr3  190860 190860 T     A     SNP          0.033          0
#>  6 inter… LOC1… chr3  198896 198896 C     G     SNP          0.347          0
#>  7 inter… LOC1… chr3  234298 234298 C     T     SNP          0.233          0
#>  8 intro… CHL1  chr3  271958 271958 C     G     SNP          0.282          0
#>  9 intro… CHL1  chr3  312028 312028 C     T     SNP          0.083          0
#> 10 intro… CHL1  chr3  321624 321624 C     T     SNP          0.162          0
#> # … with 4,633 more rows, and 9 more variables: depth.tumour <dbl>,
#> #   depth.normal <chr>, NV <dbl>, VAF <dbl>, cluster <chr>, Tail <dbl>,
#> #   C1 <dbl>, C2 <dbl>, C3 <dbl>
…
# Table observation countns
print(dnds_stats$dndscv_table)
#> # A tibble: 40,182 x 15
#>    gene_name n_syn n_mis n_non n_spl wmis_cv wnon_cv wspl_cv pmis_cv ptrunc_cv
#>    <chr>     <dbl> <dbl> <dbl> <dbl>   <dbl>   <dbl>   <dbl>   <dbl>     <dbl>
#>  1 CNTN4         0     1     1     0    507.   3544.   3544. 1.36e-3 0.000170 
#>  2 P4HTM         0     0     1     0      0   11135.  11135. 9.67e-1 0.0000506
#>  3 PRSS46        0     1     0     0   4274.      0       0  1.39e-4 0.992    
#>  4 SPICE1        1     0     1     0      0    2859.   2859. 9.42e-1 0.000209 
#>  5 C3orf56       0     1     0     0   2721.      0       0  2.25e-4 0.993    
#>  6 CISH          0     1     0     0   2426.      0       0  2.54e-4 0.995    
#>  7 TMEM45A       0     1     0     0   1871.      0       0  3.36e-4 0.991    
#>  8 PLSCR1        0     1     0     0   1798.      0       0  3.50e-4 0.987    
#>  9 LMCD1         0     1     0     0   1757.      0       0  3.59e-4 0.991    
#> 10 DNAJC13       0     0     1     0      0    1711.   1711. 9.23e-1 0.000369 
#> # … with 40,172 more rows, and 5 more variables: pallsubs_cv <dbl>,
#> #   qmis_cv <dbl>, qtrunc_cv <dbl>, qallsubs_cv <dbl>, dnds_group <chr>
…
