Introduction • mobster
…
In this example we fix the seed and the parameter B = Beta_variance_scaling, which affects the variance of the Beta(s). Because the variance is sampled as u/B ~ U[0,1] (scaled by this value), values on the order of 1000 give low variance, representative of high-coverage sequencing, while 100 represents a dataset with quite some dispersion. This is because the underlyin allele-frequency data is generated from a putative Beta-Binomial generative model.

dataset = random_dataset(
  seed = 123, 
  Beta_variance_scaling = 100    # variance ~ U[0, 1]/Beta_variance_scaling
  )

A list with 3 components is returned, which you can access to see the actual data, the sampled parameters of the generative model, and a plot of the data.

MOBSTER’s statistical model, a Dirichlet Beta Pareto Mixture Model (DBPMM), provides an implementation for its density function (ddbpmm), and a sampler (rdbpmm) which is used internally by random_dataset.

# Data, in the MOBSTER input format with a "VAF" column.
print(dataset$data)
#> # A tibble: 5,000 x 2
#>      VAF cluster
#>    <dbl> <chr>  
#>  1 0.848 C1     
#>  2 0.774 C1     
#>  3 0.829 C1     
#>  4 0.641 C1     
#>  5 0.916 C1     
#>  6 0.795 C1     
#>  7 0.861 C1     
#>  8 0.815 C1     
#>  9 0.787 C1     
#> 10 0.799 C1     
#> # … with 4,990 more rows
…
Hard clustering assignments are computed and can be accessed with function Clusters, the function also allows imposing a minimum cutoff to the reponsibilities of the mutations (if a mutation’s maximum responsibility is below the cutoff, its assignment will be NA). Note that the return tibble is a copy of the input, with the new cluster column, plus a set of columns for the latent variables in MOBSTER (the clustering reponsibilities).

# Assign mutations with at least 80% of probability mass to their maximum responsibility
clusters = Clusters(
  fit$best, 
  cutoff_assignment = .8
  )

print(clusters)
#> # A tibble: 5,000 x 5
#>      VAF cluster    Tail    C1       C2
#>    <dbl> <chr>     <dbl> <dbl>    <dbl>
#>  1 0.848 C1      0.00640 0.994 1.79e- 7
#>  2 0.774 C1      0.00899 0.991 1.33e- 4
#>  3 0.829 C1      0.00653 0.993 1.34e- 6
#>  4 0.641 <NA>    0.0444  0.726 2.29e- 1
#>  5 0.916 C1      0.0114  0.989 9.32e-12
#>  6 0.795 C1      0.00766 0.992 2.69e- 5
#>  7 0.861 C1      0.00654 0.993 3.93e- 8
#>  8 0.815 C1      0.00683 0.993 4.64e- 6
#>  9 0.787 C1      0.00808 0.992 4.93e- 5
#> 10 0.799 C1      0.00745 0.993 1.91e- 5
#> # … with 4,990 more rows
…
