Compute boostrap statistics from a bootstrap run. — bootstrapped_statistics • mobster
…
#> 2 C1      Variance   0.00464        0.00478          0.0487 0.0490    0.0524
#> 3 C2      Mean       0.395          0.396            0.420  0.420    NA     
#> 4 C2      Variance   0.00825        0.00857          0.0167 0.0168   NA     
#> # … with 1 more variable: init.value <dbl>
#>                                                    
#> ✓ Confidence Intervals (CI) for empirical quantiles ... done
#> 
#> 
#> ℹ Co-clustering probability from nonparametric bootstrap
#>                                                         
#> ✓ Co-clustering probability from nonparametric bootstrap ... done
#> 
print(boot_stats)
#> $bootstrap_values
#> # A tibble: 65 x 5
#>    cluster statistics        fit.value init.value resample
#>    <chr>   <chr>                 <dbl>      <dbl>    <int>
#>  1 Tail    Shape               3.14      3.54            1
#>  2 Tail    Scale               0.0504    0.0504          1
#>  3 Tail    Mean                0.0740    0.0703          1
#>  4 Tail    Variance            0.00154   0.000905        1
#>  5 C1      a                   2.44      7.12            1
#>  6 C1      b                   1.98      7.12            1
#>  7 C1      Mean                0.552     0.327           1
#>  8 C1      Variance            0.0456    0.00966         1
#>  9 Tail    Mixing proportion   0.208     0.5             1
#> 10 C1      Mixing proportion   0.792     0.5             1
#> # … with 55 more rows
…
