Bootstrap a MOBSTER fit. — mobster_bootstrap • mobster
…
# The resample data is wrapped as lists of lists
lapply(mb$resamples, function(x) x[[1]] %>% as_tibble)
#> [[1]]
#> # A tibble: 5,000 x 3
#>       id    VAF original.id
#>    <int>  <dbl>       <int>
#>  1     1 0.0740        4219
#>  2     2 0.451          581
#>  3     3 0.492         2443
#>  4     4 0.452         2402
#>  5     5 0.0867        3333
#>  6     6 0.475          885
#>  7     7 0.141         3608
#>  8     8 0.462         2092
#>  9     9 0.524         1269
#> 10    10 0.141         3289
#> # … with 4,990 more rows
#> 
#> [[2]]
#> # A tibble: 5,000 x 3
#>       id    VAF original.id
#>    <int>  <dbl>       <int>
#>  1     1 0.230         4041
#>  2     2 0.461          531
#>  3     3 0.129         4838
#>  4     4 0.467         1653
#>  5     5 0.0806        3574
#>  6     6 0.0797        4864
#>  7     7 0.0552        4658
#>  8     8 0.501         1435
#>  9     9 0.0515        4052
#> 10    10 0.0706        3360
#> # … with 4,990 more rows
#> 
#> [[3]]
#> # A tibble: 5,000 x 3
#>       id    VAF original.id
#>    <int>  <dbl>       <int>
#>  1     1 0.0505        3393
#>  2     2 0.479         2706
#>  3     3 0.498          864
#>  4     4 0.0600        3616
#>  5     5 0.150         4329
#>  6     6 0.463         1012
#>  7     7 0.438         2453
#>  8     8 0.262         3473
#>  9     9 0.464         2535
#> 10    10 0.141         2976
#> # … with 4,990 more rows
#> 
#> [[4]]
#> # A tibble: 5,000 x 3
#>       id    VAF original.id
#>    <int>  <dbl>       <int>
#>  1     1 0.465          545
#>  2     2 0.153         2919
#>  3     3 0.517         2193
#>  4     4 0.0591        3886
#>  5     5 0.463          912
#>  6     6 0.171         2893
#>  7     7 0.526         1373
#>  8     8 0.489          726
#>  9     9 0.117         3415
#> 10    10 0.158         2957
#> # … with 4,990 more rows
#> 
#> [[5]]
#> # A tibble: 5,000 x 3
#>       id    VAF original.id
#>    <int>  <dbl>       <int>
#>  1     1 0.501         2415
#>  2     2 0.554         3389
#>  3     3 0.448          954
#>  4     4 0.136         4679
#>  5     5 0.0505        3393
#>  6     6 0.521         1681
#>  7     7 0.466         2379
#>  8     8 0.451          644
#>  9     9 0.0679        4118
#> 10    10 0.0642        3701
#> # … with 4,990 more rows
…
