Fit a model with MOBSTER. — mobster_fit • mobster
…
      description
      A textual description of this dataset.

    Value

    A list of all fits computed (objects of class dbpmm), the best fit, a table with the results of the fits and a
variable that specify which score has been used for model selection.

    Examples

# Generate a random dataset
x = random_dataset(seed = 123, Beta_variance_scaling = 100, N = 200)
print(x) # Contains a ggplot object
#> $data
#> # A tibble: 200 x 2
#>      VAF cluster
#>    <dbl> <chr>  
#>  1 0.615 C1     
#>  2 0.572 C1     
#>  3 0.846 C1     
#>  4 0.679 C1     
#>  5 0.502 C1     
#>  6 0.582 C1     
#>  7 0.530 C1     
#>  8 0.691 C1     
#>  9 0.654 C1     
#> 10 0.601 C1     
#> # ... with 190 more rows
…
