7. Visualizing subclonal expansions • mobster
…
# Split by time point (`d` variable)
df.steps = split(df, f = df$d)

# Integer times
t_integers = df$d %>%  round() %>% unique %>% sort 

df = df %>% 
  as_tibble() %>%
  filter(d %in% t_integers) %>%
  mutate(cloneid = paste0(cloneid)) 

print(df %>% as_tibble)
#> # A tibble: 70,474 x 6
#>      VAF trueVAF cloneid cloneVAF     d popsize
#>    <dbl>   <dbl> <chr>      <dbl> <dbl>   <dbl>
#>  1 0.496     0.5 1              0     1       1
#>  2 0.459     0.5 1              0     1       1
#>  3 0.496     0.5 1              0     1       1
#>  4 0.5       0.5 1              0     1       1
#>  5 0.463     0.5 1              0     1       1
#>  6 0.460     0.5 1              0     1       1
#>  7 0.484     0.5 1              0     1       1
#>  8 0.474     0.5 1              0     1       1
#>  9 0.491     0.5 1              0     1       1
#> 10 0.505     0.5 1              0     1       1
#> # … with 70,464 more rows
…
